{
    "name": "Skills",
    "children":[
        {
            "name": "Hobbies",
            "children": [
                {"name":"NFT creating", "value": 30},
                {"name":"Crypto trading", "value": 35},
                {"name":"Gaming", "value": 20},
                {"name":"Manga", "value": 15},
                {"name":"Travelling", "value": 40}
            ]
        },
        {
            "name": "Strong points",
            "children": [
                {"name":"Autonomous work", "value": 30},
                {"name":"Team spirit", "value": 30},
                {"name":"My curiosity", "value": 40},
                {"name":"Ready to remote work", "value": 40}
            ]
        },
        {
            "name": "Methods",
            "children": [
                {"name":"Scrum", "value": 50},
                {"name":"Clean code", "value": 25},
                {"name":"BDD", "value": 12.5},
                {"name":"TDD", "value": 12.5}
            ]
        },
        {
            "name": "Stack",
            "children": [
                {"name":"Javascript", "value": 45},
                {"name":"Typescript", "value": 20},
                {"name":"HTML", "value": 45},
                {"name":"CSS/SASS", "value": 45},
                {"name":"ReactJS", "value": 30},
                {"name":"Redux", "value": 7},
                {"name":"React Native", "value": 5},
                {"name":"Victory Native", "value": 25},
                {"name":"D3JS", "value": 3},
                {"name":"Phaser", "value": 5},
                {"name":"GSAP", "value": 7},
                {"name":"ThreeJS", "value": 20},
                {"name":"BabylonJS", "value": 9},
                {"name":"NodeJS", "value": 9},
                {"name":"Socket.io", "value": 7},
                {"name":"Web RTC", "value": 4},
                {"name":"API REST", "value": 9},
                {"name":"PHP", "value": 9},
                {"name":"Symfony", "value": 4},
                {"name":"Mysql", "value": 4},
                {"name":"MongoDB", "value": 4},
                {"name":"Git", "value": 7},
                {"name":"Jest", "value": 20},
                {"name":"Cucumber", "value": 7},
                {"name":"Webpack", "value": 15},
                {"name":"Unity 3D", "value": 5},
                {"name":"Blender", "value": 11},
                {"name":"Illustrator", "value": 15},
                {"name":"Photoshop", "value": 9},
                {"name":"Figma", "value": 9}
            ]
        }
    ]
}